%YAML 1.1
%TAG !u! tag:unity3d.com,2011:
--- !u!1 &687882993149369680
GameObject:
  m_ObjectHideFlags: 0
  m_CorrespondingSourceObject: {fileID: 0}
  m_PrefabInstance: {fileID: 0}
  m_PrefabAsset: {fileID: 0}
  serializedVersion: 6
  m_Component:
  - component: {fileID: 687882993149369707}
  - component: {fileID: 687882993149369684}
  - component: {fileID: 687882993149369685}
  - component: {fileID: 687882993149369686}
  - component: {fileID: 687882993149369687}
  - component: {fileID: -6185718523515633266}
  - component: {fileID: 4306980711343997142}
  - component: {fileID: 4590382580629633835}
  m_Layer: 0
  m_Name: PowerUp
  m_TagString: Coleccionable
  m_Icon: {fileID: 0}
  m_NavMeshLayer: 0
  m_StaticEditorFlags: 0
  m_IsActive: 1
--- !u!4 &687882993149369707
Transform:
  m_ObjectHideFlags: 0
  m_CorrespondingSourceObject: {fileID: 0}
  m_PrefabInstance: {fileID: 0}
  m_PrefabAsset: {fileID: 0}
  m_GameObject: {fileID: 687882993149369680}
  m_LocalRotation: {x: 0.46193978, y: 0.19134173, z: 0.19134173, w: 0.84462327}
  m_LocalPosition: {x: 0, y: 0, z: 0}
  m_LocalScale: {x: 1, y: 1, z: 1}
  m_Children: []
  m_Father: {fileID: 0}
  m_RootOrder: 0
  m_LocalEulerAnglesHint: {x: 45, y: 45, z: 45}
--- !u!114 &687882993149369684
MonoBehaviour:
  m_ObjectHideFlags: 0
  m_CorrespondingSourceObject: {fileID: 0}
  m_PrefabInstance: {fileID: 0}
  m_PrefabAsset: {fileID: 0}
  m_GameObject: {fileID: 687882993149369680}
  m_Enabled: 1
  m_EditorHideFlags: 0
  m_Script: {fileID: 11500000, guid: 8233d90336aea43098adf6dbabd606a2, type: 3}
  m_Name: 
  m_EditorClassIdentifier: 
  m_MeshFormatVersion: 1
  m_Faces:
  - m_Indexes: 000000000100000002000000
    m_SmoothingGroup: 0
    m_Uv:
      m_UseWorldSpace: 0
      m_FlipU: 0
      m_FlipV: 0
      m_SwapUV: 0
      m_Fill: 1
      m_Scale: {x: 1, y: 1}
      m_Offset: {x: 0, y: 0}
      m_Rotation: 0
      m_Anchor: 9
    m_Material: {fileID: 0}
    m_SubmeshIndex: 0
    m_ManualUV: 1
    elementGroup: -1
    m_TextureGroup: -1
  - m_Indexes: 030000000400000005000000
    m_SmoothingGroup: 0
    m_Uv:
      m_UseWorldSpace: 0
      m_FlipU: 0
      m_FlipV: 0
      m_SwapUV: 0
      m_Fill: 1
      m_Scale: {x: 1, y: 1}
      m_Offset: {x: 0, y: 0}
      m_Rotation: 0
      m_Anchor: 9
    m_Material: {fileID: 0}
    m_SubmeshIndex: 0
    m_ManualUV: 1
    elementGroup: -1
    m_TextureGroup: -1
  - m_Indexes: 060000000700000008000000
    m_SmoothingGroup: 0
    m_Uv:
      m_UseWorldSpace: 0
      m_FlipU: 0
      m_FlipV: 0
      m_SwapUV: 0
      m_Fill: 1
      m_Scale: {x: 1, y: 1}
      m_Offset: {x: 0, y: 0}
      m_Rotation: 0
      m_Anchor: 9
    m_Material: {fileID: 0}
    m_SubmeshIndex: 0
    m_ManualUV: 1
    elementGroup: -1
    m_TextureGroup: -1
  - m_Indexes: 090000000a0000000b000000
    m_SmoothingGroup: 0
    m_Uv:
      m_UseWorldSpace: 0
      m_FlipU: 0
      m_FlipV: 0
      m_SwapUV: 0
      m_Fill: 1
      m_Scale: {x: 1, y: 1}
      m_Offset: {x: 0, y: 0}
      m_Rotation: 0
      m_Anchor: 9
    m_Material: {fileID: 0}
    m_SubmeshIndex: 0
    m_ManualUV: 1
    elementGroup: -1
    m_TextureGroup: -1
  - m_Indexes: 0c0000000d0000000e000000
    m_SmoothingGroup: 0
    m_Uv:
      m_UseWorldSpace: 0
      m_FlipU: 0
      m_FlipV: 0
      m_SwapUV: 0
      m_Fill: 1
      m_Scale: {x: 1, y: 1}
      m_Offset: {x: 0, y: 0}
      m_Rotation: 0
      m_Anchor: 9
    m_Material: {fileID: 0}
    m_SubmeshIndex: 0
    m_ManualUV: 1
    elementGroup: -1
    m_TextureGroup: -1
  - m_Indexes: 0f0000001000000011000000
    m_SmoothingGroup: 0
    m_Uv:
      m_UseWorldSpace: 0
      m_FlipU: 0
      m_FlipV: 0
      m_SwapUV: 0
      m_Fill: 1
      m_Scale: {x: 1, y: 1}
      m_Offset: {x: 0, y: 0}
      m_Rotation: 0
      m_Anchor: 9
    m_Material: {fileID: 0}
    m_SubmeshIndex: 0
    m_ManualUV: 1
    elementGroup: -1
    m_TextureGroup: -1
  - m_Indexes: 120000001300000014000000
    m_SmoothingGroup: 0
    m_Uv:
      m_UseWorldSpace: 0
      m_FlipU: 0
      m_FlipV: 0
      m_SwapUV: 0
      m_Fill: 1
      m_Scale: {x: 1, y: 1}
      m_Offset: {x: 0, y: 0}
      m_Rotation: 0
      m_Anchor: 9
    m_Material: {fileID: 0}
    m_SubmeshIndex: 0
    m_ManualUV: 1
    elementGroup: -1
    m_TextureGroup: -1
  - m_Indexes: 150000001600000017000000
    m_SmoothingGroup: 0
    m_Uv:
      m_UseWorldSpace: 0
      m_FlipU: 0
      m_FlipV: 0
      m_SwapUV: 0
      m_Fill: 1
      m_Scale: {x: 1, y: 1}
      m_Offset: {x: 0, y: 0}
      m_Rotation: 0
      m_Anchor: 9
    m_Material: {fileID: 0}
    m_SubmeshIndex: 0
    m_ManualUV: 1
    elementGroup: -1
    m_TextureGroup: -1
  - m_Indexes: 18000000190000001a000000
    m_SmoothingGroup: 0
    m_Uv:
      m_UseWorldSpace: 0
      m_FlipU: 0
      m_FlipV: 0
      m_SwapUV: 0
      m_Fill: 1
      m_Scale: {x: 1, y: 1}
      m_Offset: {x: 0, y: 0}
      m_Rotation: 0
      m_Anchor: 9
    m_Material: {fileID: 0}
    m_SubmeshIndex: 0
    m_ManualUV: 1
    elementGroup: -1
    m_TextureGroup: -1
  - m_Indexes: 1b0000001c0000001d000000
    m_SmoothingGroup: 0
    m_Uv:
      m_UseWorldSpace: 0
      m_FlipU: 0
      m_FlipV: 0
      m_SwapUV: 0
      m_Fill: 1
      m_Scale: {x: 1, y: 1}
      m_Offset: {x: 0, y: 0}
      m_Rotation: 0
      m_Anchor: 9
    m_Material: {fileID: 0}
    m_SubmeshIndex: 0
    m_ManualUV: 1
    elementGroup: -1
    m_TextureGroup: -1
  - m_Indexes: 1e0000001f00000020000000
    m_SmoothingGroup: 0
    m_Uv:
      m_UseWorldSpace: 0
      m_FlipU: 0
      m_FlipV: 0
      m_SwapUV: 0
      m_Fill: 1
      m_Scale: {x: 1, y: 1}
      m_Offset: {x: 0, y: 0}
      m_Rotation: 0
      m_Anchor: 9
    m_Material: {fileID: 0}
    m_SubmeshIndex: 0
    m_ManualUV: 1
    elementGroup: -1
    m_TextureGroup: -1
  - m_Indexes: 210000002200000023000000
    m_SmoothingGroup: 0
    m_Uv:
      m_UseWorldSpace: 0
      m_FlipU: 0
      m_FlipV: 0
      m_SwapUV: 0
      m_Fill: 1
      m_Scale: {x: 1, y: 1}
      m_Offset: {x: 0, y: 0}
      m_Rotation: 0
      m_Anchor: 9
    m_Material: {fileID: 0}
    m_SubmeshIndex: 0
    m_ManualUV: 1
    elementGroup: -1
    m_TextureGroup: -1
  - m_Indexes: 240000002500000026000000
    m_SmoothingGroup: 0
    m_Uv:
      m_UseWorldSpace: 0
      m_FlipU: 0
      m_FlipV: 0
      m_SwapUV: 0
      m_Fill: 1
      m_Scale: {x: 1, y: 1}
      m_Offset: {x: 0, y: 0}
      m_Rotation: 0
      m_Anchor: 9
    m_Material: {fileID: 0}
    m_SubmeshIndex: 0
    m_ManualUV: 1
    elementGroup: -1
    m_TextureGroup: -1
  - m_Indexes: 270000002800000029000000
    m_SmoothingGroup: 0
    m_Uv:
      m_UseWorldSpace: 0
      m_FlipU: 0
      m_FlipV: 0
      m_SwapUV: 0
      m_Fill: 1
      m_Scale: {x: 1, y: 1}
      m_Offset: {x: 0, y: 0}
      m_Rotation: 0
      m_Anchor: 9
    m_Material: {fileID: 0}
    m_SubmeshIndex: 0
    m_ManualUV: 1
    elementGroup: -1
    m_TextureGroup: -1
  - m_Indexes: 2a0000002b0000002c000000
    m_SmoothingGroup: 0
    m_Uv:
      m_UseWorldSpace: 0
      m_FlipU: 0
      m_FlipV: 0
      m_SwapUV: 0
      m_Fill: 1
      m_Scale: {x: 1, y: 1}
      m_Offset: {x: 0, y: 0}
      m_Rotation: 0
      m_Anchor: 9
    m_Material: {fileID: 0}
    m_SubmeshIndex: 0
    m_ManualUV: 1
    elementGroup: -1
    m_TextureGroup: -1
  - m_Indexes: 2d0000002e0000002f000000
    m_SmoothingGroup: 0
    m_Uv:
      m_UseWorldSpace: 0
      m_FlipU: 0
      m_FlipV: 0
      m_SwapUV: 0
      m_Fill: 1
      m_Scale: {x: 1, y: 1}
      m_Offset: {x: 0, y: 0}
      m_Rotation: 0
      m_Anchor: 9
    m_Material: {fileID: 0}
    m_SubmeshIndex: 0
    m_ManualUV: 1
    elementGroup: -1
    m_TextureGroup: -1
  - m_Indexes: 300000003100000032000000
    m_SmoothingGroup: 0
    m_Uv:
      m_UseWorldSpace: 0
      m_FlipU: 0
      m_FlipV: 0
      m_SwapUV: 0
      m_Fill: 1
      m_Scale: {x: 1, y: 1}
      m_Offset: {x: 0, y: 0}
      m_Rotation: 0
      m_Anchor: 9
    m_Material: {fileID: 0}
    m_SubmeshIndex: 0
    m_ManualUV: 1
    elementGroup: -1
    m_TextureGroup: -1
  - m_Indexes: 330000003400000035000000
    m_SmoothingGroup: 0
    m_Uv:
      m_UseWorldSpace: 0
      m_FlipU: 0
      m_FlipV: 0
      m_SwapUV: 0
      m_Fill: 1
      m_Scale: {x: 1, y: 1}
      m_Offset: {x: 0, y: 0}
      m_Rotation: 0
      m_Anchor: 9
    m_Material: {fileID: 0}
    m_SubmeshIndex: 0
    m_ManualUV: 1
    elementGroup: -1
    m_TextureGroup: -1
  - m_Indexes: 360000003700000038000000
    m_SmoothingGroup: 0
    m_Uv:
      m_UseWorldSpace: 0
      m_FlipU: 0
      m_FlipV: 0
      m_SwapUV: 0
      m_Fill: 1
      m_Scale: {x: 1, y: 1}
      m_Offset: {x: 0, y: 0}
      m_Rotation: 0
      m_Anchor: 9
    m_Material: {fileID: 0}
    m_SubmeshIndex: 0
    m_ManualUV: 1
    elementGroup: -1
    m_TextureGroup: -1
  - m_Indexes: 390000003a0000003b000000
    m_SmoothingGroup: 0
    m_Uv:
      m_UseWorldSpace: 0
      m_FlipU: 0
      m_FlipV: 0
      m_SwapUV: 0
      m_Fill: 1
      m_Scale: {x: 1, y: 1}
      m_Offset: {x: 0, y: 0}
      m_Rotation: 0
      m_Anchor: 9
    m_Material: {fileID: 0}
    m_SubmeshIndex: 0
    m_ManualUV: 1
    elementGroup: -1
    m_TextureGroup: -1
  m_SharedVertices:
  - m_Vertices: 000000000300000006000000090000000c000000
  - m_Vertices: 010000000e000000130000001500000032000000
  - m_Vertices: 020000000400000010000000120000002f000000
  - m_Vertices: 05000000070000000f0000001c0000003b000000
  - m_Vertices: 080000000a000000190000001b00000038000000
  - m_Vertices: 0b0000000d000000160000001800000035000000
  - m_Vertices: 110000001f0000002c0000002e00000039000000
  - m_Vertices: 1400000020000000220000002d00000031000000
  - m_Vertices: 1700000023000000250000003000000034000000
  - m_Vertices: 1a00000026000000280000003300000037000000
  - m_Vertices: 1d000000290000002b000000360000003a000000
  - m_Vertices: 1e0000002100000024000000270000002a000000
  m_SharedTextures: []
  m_Positions:
  - {x: 0, y: 0.8506508, z: 0}
  - {x: -0.16245985, y: 0.4253254, z: 0.26286554}
  - {x: 0.26286554, y: 0.68819094, z: 0.4253254}
  - {x: 0, y: 0.8506508, z: 0}
  - {x: 0.26286554, y: 0.68819094, z: 0.4253254}
  - {x: 0.5257311, y: 0.8506508, z: 0}
  - {x: 0, y: 0.8506508, z: 0}
  - {x: 0.5257311, y: 0.8506508, z: 0}
  - {x: 0.26286554, y: 0.68819094, z: -0.4253254}
  - {x: 0, y: 0.8506508, z: 0}
  - {x: 0.26286554, y: 0.68819094, z: -0.4253254}
  - {x: -0.16245985, y: 0.4253254, z: -0.26286554}
  - {x: 0, y: 0.8506508, z: 0}
  - {x: -0.16245985, y: 0.4253254, z: -0.26286554}
  - {x: -0.16245985, y: 0.4253254, z: 0.26286554}
  - {x: 0.5257311, y: 0.8506508, z: 0}
  - {x: 0.26286554, y: 0.68819094, z: 0.4253254}
  - {x: 0.68819094, y: 0.4253254, z: 0.26286554}
  - {x: 0.26286554, y: 0.68819094, z: 0.4253254}
  - {x: -0.16245985, y: 0.4253254, z: 0.26286554}
  - {x: 0.26286554, y: 0.16245985, z: 0.4253254}
  - {x: -0.16245985, y: 0.4253254, z: 0.26286554}
  - {x: -0.16245985, y: 0.4253254, z: -0.26286554}
  - {x: 0, y: 0, z: 0}
  - {x: -0.16245985, y: 0.4253254, z: -0.26286554}
  - {x: 0.26286554, y: 0.68819094, z: -0.4253254}
  - {x: 0.26286554, y: 0.16245985, z: -0.4253254}
  - {x: 0.26286554, y: 0.68819094, z: -0.4253254}
  - {x: 0.5257311, y: 0.8506508, z: 0}
  - {x: 0.68819094, y: 0.4253254, z: -0.26286554}
  - {x: 0.5257311, y: 0, z: 0}
  - {x: 0.68819094, y: 0.4253254, z: 0.26286554}
  - {x: 0.26286554, y: 0.16245985, z: 0.4253254}
  - {x: 0.5257311, y: 0, z: 0}
  - {x: 0.26286554, y: 0.16245985, z: 0.4253254}
  - {x: 0, y: 0, z: 0}
  - {x: 0.5257311, y: 0, z: 0}
  - {x: 0, y: 0, z: 0}
  - {x: 0.26286554, y: 0.16245985, z: -0.4253254}
  - {x: 0.5257311, y: 0, z: 0}
  - {x: 0.26286554, y: 0.16245985, z: -0.4253254}
  - {x: 0.68819094, y: 0.4253254, z: -0.26286554}
  - {x: 0.5257311, y: 0, z: 0}
  - {x: 0.68819094, y: 0.4253254, z: -0.26286554}
  - {x: 0.68819094, y: 0.4253254, z: 0.26286554}
  - {x: 0.26286554, y: 0.16245985, z: 0.4253254}
  - {x: 0.68819094, y: 0.4253254, z: 0.26286554}
  - {x: 0.26286554, y: 0.68819094, z: 0.4253254}
  - {x: 0, y: 0, z: 0}
  - {x: 0.26286554, y: 0.16245985, z: 0.4253254}
  - {x: -0.16245985, y: 0.4253254, z: 0.26286554}
  - {x: 0.26286554, y: 0.16245985, z: -0.4253254}
  - {x: 0, y: 0, z: 0}
  - {x: -0.16245985, y: 0.4253254, z: -0.26286554}
  - {x: 0.68819094, y: 0.4253254, z: -0.26286554}
  - {x: 0.26286554, y: 0.16245985, z: -0.4253254}
  - {x: 0.26286554, y: 0.68819094, z: -0.4253254}
  - {x: 0.68819094, y: 0.4253254, z: 0.26286554}
  - {x: 0.68819094, y: 0.4253254, z: -0.26286554}
  - {x: 0.5257311, y: 0.8506508, z: 0}
  m_Textures0:
  - {x: 0, y: 0.8506508}
  - {x: 0.16245985, y: 0.4253254}
  - {x: -0.26286554, y: 0.68819094}
  - {x: 0, y: 0}
  - {x: 0.26286554, y: 0.4253254}
  - {x: 0.5257311, y: 0}
  - {x: 0, y: 0}
  - {x: 0.5257311, y: 0}
  - {x: 0.26286554, y: -0.4253254}
  - {x: 0, y: 0.8506508}
  - {x: 0.26286554, y: 0.68819094}
  - {x: -0.16245985, y: 0.4253254}
  - {x: 0, y: 0.8506508}
  - {x: 0.26286554, y: 0.4253254}
  - {x: -0.26286554, y: 0.4253254}
  - {x: -0.5257311, y: 0.8506508}
  - {x: -0.26286554, y: 0.68819094}
  - {x: -0.68819094, y: 0.4253254}
  - {x: -0.26286554, y: 0.68819094}
  - {x: 0.16245985, y: 0.4253254}
  - {x: -0.26286554, y: 0.16245985}
  - {x: -0.26286554, y: 0.4253254}
  - {x: 0.26286554, y: 0.4253254}
  - {x: 0, y: 0}
  - {x: -0.16245985, y: 0.4253254}
  - {x: 0.26286554, y: 0.68819094}
  - {x: 0.26286554, y: 0.16245985}
  - {x: 0.26286554, y: 0.68819094}
  - {x: 0.5257311, y: 0.8506508}
  - {x: 0.68819094, y: 0.4253254}
  - {x: -0.5257311, y: 0}
  - {x: -0.68819094, y: 0.4253254}
  - {x: -0.26286554, y: 0.16245985}
  - {x: -0.5257311, y: 0}
  - {x: -0.26286554, y: 0.4253254}
  - {x: 0, y: 0}
  - {x: -0.5257311, y: 0}
  - {x: 0, y: 0}
  - {x: -0.26286554, y: -0.4253254}
  - {x: 0.5257311, y: 0}
  - {x: 0.26286554, y: 0.16245985}
  - {x: 0.68819094, y: 0.4253254}
  - {x: 0, y: 0}
  - {x: -0.26286554, y: 0.4253254}
  - {x: 0.26286554, y: 0.4253254}
  - {x: -0.26286554, y: 0.16245985}
  - {x: -0.68819094, y: 0.4253254}
  - {x: -0.26286554, y: 0.68819094}
  - {x: 0, y: 0}
  - {x: -0.26286554, y: 0.16245985}
  - {x: 0.16245985, y: 0.4253254}
  - {x: 0.26286554, y: 0.16245985}
  - {x: 0, y: 0}
  - {x: -0.16245985, y: 0.4253254}
  - {x: 0.68819094, y: 0.4253254}
  - {x: 0.26286554, y: 0.16245985}
  - {x: 0.26286554, y: 0.68819094}
  - {x: 0.26286554, y: 0.4253254}
  - {x: -0.26286554, y: 0.4253254}
  - {x: 0, y: 0.8506508}
  m_Textures2: []
  m_Textures3: []
  m_Tangents:
  - {x: -0.70710677, y: 0, z: -0.70710677, w: -1}
  - {x: -0.70710677, y: 0, z: -0.70710677, w: -1}
  - {x: -0.70710677, y: 0, z: -0.70710677, w: -1}
  - {x: 1, y: 0, z: 0, w: -1}
  - {x: 1, y: 0, z: 0, w: -1}
  - {x: 1, y: 0, z: 0, w: -1}
  - {x: 1, y: 0, z: 0, w: -1}
  - {x: 1, y: 0, z: 0, w: -1}
  - {x: 1, y: 0, z: 0, w: -1}
  - {x: 0.70710677, y: 0, z: -0.70710677, w: -1}
  - {x: 0.70710677, y: 0, z: -0.70710677, w: -1}
  - {x: 0.70710677, y: 0, z: -0.70710677, w: -1}
  - {x: 0, y: 0, z: -1, w: -1}
  - {x: 0, y: 0, z: -1, w: -1}
  - {x: 0, y: 0, z: -1, w: -1}
  - {x: -0.70710677, y: 0, z: 0.70710677, w: -1}
  - {x: -0.70710677, y: 0, z: 0.70710677, w: -1}
  - {x: -0.70710677, y: 0, z: 0.70710677, w: -1}
  - {x: -0.93417233, y: 0, z: -0.35682213, w: -1}
  - {x: -0.93417233, y: 0, z: -0.35682213, w: -1}
  - {x: -0.93417233, y: 0, z: -0.35682213, w: -1}
  - {x: 0, y: 0, z: -1, w: -1}
  - {x: 0, y: 0, z: -1, w: -1}
  - {x: 0, y: 0, z: -1, w: -1}
  - {x: 0.93417233, y: 0, z: -0.35682213, w: -1}
  - {x: 0.93417233, y: 0, z: -0.35682213, w: -1}
  - {x: 0.93417233, y: 0, z: -0.35682213, w: -1}
  - {x: 0.70710677, y: 0, z: 0.70710677, w: -1}
  - {x: 0.70710677, y: 0, z: 0.70710677, w: -1}
  - {x: 0.70710677, y: 0, z: 0.70710677, w: -1}
  - {x: -0.70710677, y: 0, z: 0.70710677, w: -1}
  - {x: -0.70710677, y: 0, z: 0.70710677, w: -1}
  - {x: -0.70710677, y: 0, z: 0.70710677, w: -1}
  - {x: -1, y: 0, z: 0, w: -1}
  - {x: -1, y: 0, z: 0, w: -1}
  - {x: -1, y: 0, z: 0, w: -1}
  - {x: -1, y: 0, z: 0, w: -1}
  - {x: -1, y: 0, z: 0, w: -1}
  - {x: -1, y: 0, z: 0, w: -1}
  - {x: 0.70710677, y: 0, z: 0.70710677, w: -1}
  - {x: 0.70710677, y: 0, z: 0.70710677, w: -1}
  - {x: 0.70710677, y: 0, z: 0.70710677, w: -1}
  - {x: 0, y: 0, z: 1, w: -1}
  - {x: 0, y: 0, z: 1, w: -1}
  - {x: 0, y: 0, z: 1, w: -1}
  - {x: -0.93417233, y: 0, z: 0.35682213, w: -1}
  - {x: -0.93417233, y: 0, z: 0.35682213, w: -1}
  - {x: -0.93417233, y: 0, z: 0.35682213, w: -1}
  - {x: -0.70710677, y: 0, z: -0.70710677, w: -1}
  - {x: -0.70710677, y: 0, z: -0.70710677, w: -1}
  - {x: -0.70710677, y: 0, z: -0.70710677, w: -1}
  - {x: 0.70710677, y: 0, z: -0.70710677, w: -1}
  - {x: 0.70710677, y: 0, z: -0.70710677, w: -1}
  - {x: 0.70710677, y: 0, z: -0.70710677, w: -1}
  - {x: 0.93417233, y: 0, z: 0.35682213, w: -1}
  - {x: 0.93417233, y: 0, z: 0.35682213, w: -1}
  - {x: 0.93417233, y: 0, z: 0.35682213, w: -1}
  - {x: 0, y: 0, z: 1, w: -1}
  - {x: 0, y: 0, z: 1, w: -1}
  - {x: 0, y: 0, z: 1, w: -1}
  m_Colors: []
  m_UnwrapParameters:
    m_HardAngle: 88
    m_PackMargin: 20
    m_AngleError: 8
    m_AreaError: 15
  m_PreserveMeshAssetOnDestroy: 0
  assetGuid: 
  m_Mesh: {fileID: 0}
  m_IsSelectable: 1
  m_SelectedFaces: 
  m_SelectedEdges: []
  m_SelectedVertices: 
--- !u!23 &687882993149369685
MeshRenderer:
  m_ObjectHideFlags: 0
  m_CorrespondingSourceObject: {fileID: 0}
  m_PrefabInstance: {fileID: 0}
  m_PrefabAsset: {fileID: 0}
  m_GameObject: {fileID: 687882993149369680}
  m_Enabled: 1
  m_CastShadows: 1
  m_ReceiveShadows: 1
  m_DynamicOccludee: 1
  m_MotionVectors: 1
  m_LightProbeUsage: 1
  m_ReflectionProbeUsage: 1
  m_RayTracingMode: 2
  m_RenderingLayerMask: 1
  m_RendererPriority: 0
  m_Materials:
  - {fileID: 2100000, guid: 368e890da46c8460d8f5dff9d2ecaca8, type: 2}
  m_StaticBatchInfo:
    firstSubMesh: 0
    subMeshCount: 0
  m_StaticBatchRoot: {fileID: 0}
  m_ProbeAnchor: {fileID: 0}
  m_LightProbeVolumeOverride: {fileID: 0}
  m_ScaleInLightmap: 1
  m_ReceiveGI: 1
  m_PreserveUVs: 0
  m_IgnoreNormalsForChartDetection: 0
  m_ImportantGI: 0
  m_StitchLightmapSeams: 1
  m_SelectedEditorRenderState: 2
  m_MinimumChartSize: 4
  m_AutoUVMaxDistance: 0.5
  m_AutoUVMaxAngle: 89
  m_LightmapParameters: {fileID: 0}
  m_SortingLayerID: 0
  m_SortingLayer: 0
  m_SortingOrder: 0
--- !u!33 &687882993149369686
MeshFilter:
  m_ObjectHideFlags: 0
  m_CorrespondingSourceObject: {fileID: 0}
  m_PrefabInstance: {fileID: 0}
  m_PrefabAsset: {fileID: 0}
  m_GameObject: {fileID: 687882993149369680}
  m_Mesh: {fileID: 0}
--- !u!64 &687882993149369687
MeshCollider:
  m_ObjectHideFlags: 0
  m_CorrespondingSourceObject: {fileID: 0}
  m_PrefabInstance: {fileID: 0}
  m_PrefabAsset: {fileID: 0}
  m_GameObject: {fileID: 687882993149369680}
  m_Material: {fileID: 0}
  m_IsTrigger: 0
  m_Enabled: 1
  serializedVersion: 4
  m_Convex: 0
  m_CookingOptions: 30
  m_Mesh: {fileID: 0}
--- !u!135 &-6185718523515633266
SphereCollider:
  m_ObjectHideFlags: 0
  m_CorrespondingSourceObject: {fileID: 0}
  m_PrefabInstance: {fileID: 0}
  m_PrefabAsset: {fileID: 0}
  m_GameObject: {fileID: 687882993149369680}
  m_Material: {fileID: 0}
  m_IsTrigger: 1
  m_Enabled: 1
  serializedVersion: 2
  m_Radius: 0.5
  m_Center: {x: 0, y: 0, z: 0}
--- !u!114 &4306980711343997142
MonoBehaviour:
  m_ObjectHideFlags: 0
  m_CorrespondingSourceObject: {fileID: 0}
  m_PrefabInstance: {fileID: 0}
  m_PrefabAsset: {fileID: 0}
  m_GameObject: {fileID: 687882993149369680}
  m_Enabled: 1
  m_EditorHideFlags: 0
  m_Script: {fileID: 11500000, guid: 1352b10375c0648238f29bbeeea3b1d5, type: 3}
  m_Name: 
  m_EditorClassIdentifier: 
--- !u!114 &4590382580629633835
MonoBehaviour:
  m_ObjectHideFlags: 0
  m_CorrespondingSourceObject: {fileID: 0}
  m_PrefabInstance: {fileID: 0}
  m_PrefabAsset: {fileID: 0}
  m_GameObject: {fileID: 687882993149369680}
  m_Enabled: 1
  m_EditorHideFlags: 0
  m_Script: {fileID: 11500000, guid: 21d4fc78fd5a24dbeb0abbcc4571b9cf, type: 3}
  m_Name: 
  m_EditorClassIdentifier: 
  cantidad: 50
  "tiempoDa\xF1o": 1
